RV32I_PIPELINE/RV32I_top_tb.vcd
$date
	Sun Jun 29 09:27:03 2025
$end
$version
	Icarus Verilog
$end
$timescale
	1s
$end
$scope module RV32I_top_tb $end
$var reg 1 ! clk $end
$var reg 32 " r0 [31:0] $end
$var reg 32 # r1 [31:0] $end
$var reg 32 $ r2 [31:0] $end
$var reg 32 % r3 [31:0] $end
$var reg 32 & r4 [31:0] $end
$var reg 32 ' r5 [31:0] $end
$var reg 32 ( r6 [31:0] $end
$var reg 32 ) r7 [31:0] $end
$var reg 32 * r8 [31:0] $end
$var reg 32 + r9 [31:0] $end
$var reg 1 , rst_n $end
$scope module dut $end
$var wire 1 - E_actual_branch $end
$var wire 8 . addr_PHT [7:0] $end
$var wire 1 / branch_jump $end
$var wire 1 ! clk $end
$var wire 1 , rst_n $end
$var wire 1 0 update_PHT $end
$var wire 1 1 update_ghsr $end
$var wire 1 2 predict $end
$var wire 1 3 o_update_PHT_GHSR $end
$var wire 1 4 o_predict_PHT $end
$var wire 1 5 o_jump_btb $end
$var wire 1 6 o_hit_btb $end
$var wire 8 7 o_ghsr [7:0] $end
$var wire 1 8 mispre $end
$var wire 32 9 instruction [31:0] $end
$var wire 1 : i_update_BTB $end
$var wire 1 ; i_jump_btb $end
$var wire 1 < actual_branch $end
$var wire 1 = W_wen_rf $end
$var wire 2 > W_wb [1:0] $end
$var wire 32 ? W_result [31:0] $end
$var wire 5 @ W_rd [4:0] $end
$var wire 32 A W_PC_next [31:0] $end
$var wire 32 B W_DMEMresult [31:0] $end
$var wire 32 C W_ALUresult [31:0] $end
$var wire 32 D PC_target_btb [31:0] $end
$var wire 1 E PC_stall $end
$var wire 2 F PC_src [1:0] $end
$var wire 32 G PC_next [31:0] $end
$var wire 1 H PC_flush $end
$var wire 1 I M_wen_rf $end
$var wire 32 J M_wdata [31:0] $end
$var wire 2 K M_wb [1:0] $end
$var wire 5 L M_rd [4:0] $end
$var wire 1 M M_load_store $end
$var wire 3 N M_funct3 [2:0] $end
$var wire 1 O M_endmem $end
$var wire 32 P M_PC_next [31:0] $end
$var wire 32 Q M_DMEMresult [31:0] $end
$var wire 32 R M_ALUresult [31:0] $end
$var wire 1 S F_predict $end
$var wire 8 T F_addr_PHT [7:0] $end
$var wire 32 U F_PC_target_btb [31:0] $end
$var wire 2 V F_PC_src [1:0] $end
$var wire 32 W F_PC_next [31:0] $end
$var wire 32 X F_PC_cur [31:0] $end
$var wire 1 Y E_zero $end
$var wire 1 Z E_wen_rf $end
$var wire 2 [ E_wb [1:0] $end
$var wire 5 \ E_rs2 [4:0] $end
$var wire 5 ] E_rs1 [4:0] $end
$var wire 32 ^ E_rdata2_SrcB_tmp [31:0] $end
$var wire 32 _ E_rdata2_SrcB [31:0] $end
$var wire 32 ` E_rdata2 [31:0] $end
$var wire 32 a E_rdata1_SrcA [31:0] $end
$var wire 32 b E_rdata1 [31:0] $end
$var wire 5 c E_rd [4:0] $end
$var wire 1 d E_predict $end
$var wire 1 e E_load_store $end
$var wire 1 f E_jump $end
$var wire 3 g E_funct3 [2:0] $end
$var wire 1 h E_flush $end
$var wire 32 i E_extend [31:0] $end
$var wire 1 j E_endmem $end
$var wire 1 k E_branch $end
$var wire 4 l E_alucontrol [3:0] $end
$var wire 1 m E_alu_src $end
$var wire 8 n E_addr_PHT [7:0] $end
$var wire 32 o E_PC_next [31:0] $end
$var wire 32 p E_PC_cur [31:0] $end
$var wire 32 q E_PC_branch [31:0] $end
$var wire 2 r E_FWB [1:0] $end
$var wire 2 s E_FWA [1:0] $end
$var wire 32 t E_ALUresult [31:0] $end
$var wire 1 u D_wen_rf $end
$var wire 2 v D_wb [1:0] $end
$var wire 1 w D_stall $end
$var wire 32 x D_rdata2 [31:0] $end
$var wire 32 y D_rdata1 [31:0] $end
$var wire 1 z D_predict $end
$var wire 1 { D_load_store $end
$var wire 1 | D_jump $end
$var wire 32 } D_ins [31:0] $end
$var wire 3 ~ D_funct3 [2:0] $end
$var wire 1 !" D_flush $end
$var wire 32 "" D_extend [31:0] $end
$var wire 1 #" D_endmem $end
$var wire 1 $" D_branch $end
$var wire 4 %" D_alucontrol [3:0] $end
$var wire 1 &" D_alu_src $end
$var wire 8 '" D_addr_PHT [7:0] $end
$var wire 32 (" D_PC_targer_btb [31:0] $end
$var wire 2 )" D_PC_src [1:0] $end
$var wire 32 *" D_PC_next [31:0] $end
$var wire 32 +" D_PC_cur [31:0] $end
$var wire 3 ," D_Imm [2:0] $end
$var reg 1 -" compare_btb $end
$scope module ADD_inst0 $end
$var wire 32 ." i_data1 [31:0] $end
$var wire 32 /" o_data [31:0] $end
$var wire 32 0" i_data0 [31:0] $end
$upscope $end
$scope module ADD_inst1 $end
$var wire 32 1" o_data [31:0] $end
$var wire 32 2" i_data1 [31:0] $end
$var wire 32 3" i_data0 [31:0] $end
$upscope $end
$scope module ALU_inst $end
$var wire 4 4" i_opcode [3:0] $end
$var wire 32 5" i_data2 [31:0] $end
$var wire 32 6" i_data1 [31:0] $end
$var reg 32 7" o_result [31:0] $end
$var reg 1 Y o_zero $end
$upscope $end
$scope module BTB_inst $end
$var wire 1 ! clk $end
$var wire 32 8" i_E_PC_branch [31:0] $end
$var wire 1 6 o_hit_btb $end
$var wire 1 5 o_jump $end
$var wire 1 , rst_n $end
$var wire 23 9" tag_F [22:0] $end
$var wire 23 :" tag_E [22:0] $end
$var wire 32 ;" o_PC_target [31:0] $end
$var wire 7 <" index_F [6:0] $end
$var wire 7 =" index_E [6:0] $end
$var wire 1 : i_update_btb $end
$var wire 1 ; i_jump $end
$var wire 32 >" i_F_PC [31:0] $end
$var wire 32 ?" i_E_PC_cur [31:0] $end
$var integer 32 @" i [31:0] $end
$upscope $end
$scope module CONTROL_PIPELINE_inst $end
$var wire 3 A" i_funct3 [2:0] $end
$var wire 7 B" i_funct7 [6:0] $end
$var wire 7 C" i_opcode [6:0] $end
$var reg 4 D" o_ALU_control [3:0] $end
$var reg 3 E" o_Imm [2:0] $end
$var reg 1 &" o_alu_src $end
$var reg 1 $" o_branch $end
$var reg 1 #" o_en_dmem $end
$var reg 3 F" o_funct3_dmem [2:0] $end
$var reg 1 | o_jum $end
$var reg 1 { o_load_store $end
$var reg 1 u o_wen_rf $end
$var reg 2 G" o_writeback [1:0] $end
$upscope $end
$scope module CONTROL_UNITv1_inst $end
$var wire 1 - E_actual_branch $end
$var wire 1 -" compare_btb $end
$var wire 1 6 i_hit_btb $end
$var wire 1 5 i_jump_btb $end
$var wire 1 8 mispre $end
$var wire 1 4 i_predict_PHT $end
$var wire 1 f i_jump_E $end
$var wire 1 k i_branch $end
$var wire 1 z D_predict $end
$var reg 2 H" o_PC_src [1:0] $end
$var reg 1 < o_actual_branch $end
$var reg 1 ; o_jump_btb $end
$var reg 1 2 o_predict_PHT $end
$var reg 1 : o_update_BTB $end
$var reg 1 3 o_update_PHT_GHSR $end
$upscope $end
$scope module DMEM_inst $end
$var wire 1 ! clk $end
$var wire 8 I" i_addr [7:0] $end
$var wire 1 , rst_n $end
$var wire 32 J" i_wdata [31:0] $end
$var wire 1 M i_load_store $end
$var wire 3 K" i_funct3 [2:0] $end
$var wire 1 O i_cs $end
$var reg 32 L" o_rdata [31:0] $end
$var integer 32 M" i [31:0] $end
$upscope $end
$scope module EXTEND_inst $end
$var wire 3 N" i_Imm [2:0] $end
$var wire 25 O" i_data [24:0] $end
$var reg 32 P" o_data [31:0] $end
$upscope $end
$scope module EX_MEM_inst $end
$var wire 32 Q" E_ALUresult [31:0] $end
$var wire 1 ! clk $end
$var wire 1 , rst_n $end
$var wire 1 Z E_wen_rf $end
$var wire 32 R" E_wdata [31:0] $end
$var wire 2 S" E_wb [1:0] $end
$var wire 5 T" E_rd [4:0] $end
$var wire 1 e E_load_store $end
$var wire 3 U" E_funct3 [2:0] $end
$var wire 1 j E_endmem $end
$var wire 32 V" E_PC_next [31:0] $end
$var reg 32 W" M_ALUresult [31:0] $end
$var reg 32 X" M_PC_next [31:0] $end
$var reg 1 O M_endmem $end
$var reg 3 Y" M_funct3 [2:0] $end
$var reg 1 M M_load_store $end
$var reg 5 Z" M_rd [4:0] $end
$var reg 2 [" M_wb [1:0] $end
$var reg 32 \" M_wdata [31:0] $end
$var reg 1 I M_wen_rf $end
$upscope $end
$scope module GHSR_inst $end
$var wire 1 ! clk $end
$var wire 1 < i_ac $end
$var wire 1 1 i_update $end
$var wire 1 , rst_n $end
$var reg 8 ]" o_ghsr [7:0] $end
$upscope $end
$scope module HAZARD_UNIT_inst $end
$var wire 5 ^" D_rs1 [4:0] $end
$var wire 5 _" D_rs2 [4:0] $end
$var wire 5 `" M_rd [4:0] $end
$var wire 1 I M_wen_rf $end
$var wire 1 / branch_jump $end
$var wire 1 a" lw_hazard $end
$var wire 1 8 mispre $end
$var wire 1 = W_wen_rf $end
$var wire 5 b" W_rd [4:0] $end
$var wire 2 c" E_wb [1:0] $end
$var wire 5 d" E_rs2 [4:0] $end
$var wire 5 e" E_rs1 [4:0] $end
$var wire 5 f" E_rd [4:0] $end
$var reg 1 !" D_flush $end
$var reg 1 w D_stall $end
$var reg 2 g" E_FWA [1:0] $end
$var reg 2 h" E_FWB [1:0] $end
$var reg 1 h E_flush $end
$var reg 1 H F_flush $end
$var reg 1 E F_stall $end
$upscope $end
$scope module ID_EX_inst $end
$var wire 1 &" D_alu_src $end
$var wire 4 i" D_alucontrol [3:0] $end
$var wire 1 $" D_branch $end
$var wire 1 #" D_endmem $end
$var wire 32 j" D_extend [31:0] $end
$var wire 3 k" D_funct3 [2:0] $end
$var wire 1 | D_jump $end
$var wire 1 { D_load_store $end
$var wire 5 l" D_rd [4:0] $end
$var wire 5 m" D_rs1 [4:0] $end
$var wire 5 n" D_rs2 [4:0] $end
$var wire 2 o" D_wb [1:0] $end
$var wire 1 u D_wen_rf $end
$var wire 1 ! clk $end
$var wire 1 h flush $end
$var wire 1 , rst_n $end
$var wire 32 p" D_rdata2 [31:0] $end
$var wire 32 q" D_rdata1 [31:0] $end
$var wire 1 z D_predict $end
$var wire 8 r" D_addr_PHT [7:0] $end
$var wire 32 s" D_PC_next [31:0] $end
$var wire 32 t" D_PC_cur [31:0] $end
$var reg 32 u" E_PC_cur [31:0] $end
$var reg 32 v" E_PC_next [31:0] $end
$var reg 8 w" E_addr_PHT [7:0] $end
$var reg 1 m E_alu_src $end
$var reg 4 x" E_alucontrol [3:0] $end
$var reg 1 k E_branch $end
$var reg 1 j E_endmem $end
$var reg 32 y" E_extend [31:0] $end
$var reg 3 z" E_funct3 [2:0] $end
$var reg 1 f E_jump $end
$var reg 1 e E_load_store $end
$var reg 1 d E_predict $end
$var reg 5 {" E_rd [4:0] $end
$var reg 32 |" E_rdata1 [31:0] $end
$var reg 32 }" E_rdata2 [31:0] $end
$var reg 5 ~" E_rs1 [4:0] $end
$var reg 5 !# E_rs2 [4:0] $end
$var reg 2 "# E_wb [1:0] $end
$var reg 1 Z E_wen_rf $end
$upscope $end
$scope module IF_ID_inst $end
$var wire 32 ## F_PC_next [31:0] $end
$var wire 1 ! clk $end
$var wire 1 w en $end
$var wire 1 !" flush $end
$var wire 1 , rst_n $end
$var wire 1 S F_predict $end
$var wire 32 $# F_ins [31:0] $end
$var wire 8 %# F_addr_PHT [7:0] $end
$var wire 32 &# F_PC_target_btb [31:0] $end
$var wire 2 '# F_PC_src [1:0] $end
$var wire 32 (# F_PC_cur [31:0] $end
$var reg 32 )# D_PC_cur [31:0] $end
$var reg 32 *# D_PC_next [31:0] $end
$var reg 2 +# D_PC_src [1:0] $end
$var reg 32 ,# D_PC_targer_btb [31:0] $end
$var reg 8 -# D_addr_PHT [7:0] $end
$var reg 32 .# D_ins [31:0] $end
$var reg 1 z D_predict $end
$upscope $end
$scope module IMEM_inst $end
$var wire 32 /# i_addr [31:0] $end
$var reg 32 0# o_ins [31:0] $end
$upscope $end
$scope module MEM_WB_inst $end
$var wire 32 1# M_ALUresult [31:0] $end
$var wire 32 2# M_DMEMresult [31:0] $end
$var wire 32 3# M_PC_next [31:0] $end
$var wire 5 4# M_rd [4:0] $end
$var wire 2 5# M_wb [1:0] $end
$var wire 1 I M_wen_rf $end
$var wire 1 ! clk $end
$var wire 1 , rst_n $end
$var reg 32 6# W_ALUresult [31:0] $end
$var reg 32 7# W_DMEMresult [31:0] $end
$var reg 32 8# W_PC_next [31:0] $end
$var reg 5 9# W_rd [4:0] $end
$var reg 2 :# W_wb [1:0] $end
$var reg 1 = W_wen_rf $end
$upscope $end
$scope module MUX2to1_inst0 $end
$var wire 32 ;# i_data2 [31:0] $end
$var wire 1 m i_select $end
$var wire 32 <# o_data [31:0] $end
$var wire 32 =# i_data1 [31:0] $end
$upscope $end
$scope module MUX4to1_inst0 $end
$var wire 32 ># i_data0 [31:0] $end
$var wire 32 ?# i_data1 [31:0] $end
$var wire 32 @# i_data2 [31:0] $end
$var wire 32 A# i_data3 [31:0] $end
$var wire 2 B# i_select [1:0] $end
$var reg 32 C# o_data [31:0] $end
$upscope $end
$scope module MUX4to1_inst1 $end
$var wire 32 D# i_data0 [31:0] $end
$var wire 32 E# i_data1 [31:0] $end
$var wire 32 F# i_data3 [31:0] $end
$var wire 2 G# i_select [1:0] $end
$var wire 32 H# i_data2 [31:0] $end
$var reg 32 I# o_data [31:0] $end
$upscope $end
$scope module MUX4to1_inst2 $end
$var wire 32 J# i_data0 [31:0] $end
$var wire 32 K# i_data1 [31:0] $end
$var wire 32 L# i_data3 [31:0] $end
$var wire 2 M# i_select [1:0] $end
$var wire 32 N# i_data2 [31:0] $end
$var reg 32 O# o_data [31:0] $end
$upscope $end
$scope module MUX4to1_inst3 $end
$var wire 32 P# i_data0 [31:0] $end
$var wire 32 Q# i_data1 [31:0] $end
$var wire 32 R# i_data2 [31:0] $end
$var wire 32 S# i_data3 [31:0] $end
$var wire 2 T# i_select [1:0] $end
$var reg 32 U# o_data [31:0] $end
$upscope $end
$scope module PC_inst $end
$var wire 2 V# PC_src [1:0] $end
$var wire 32 W# PC_target_btb [31:0] $end
$var wire 1 ! clk $end
$var wire 1 E en $end
$var wire 1 H flush $end
$var wire 32 X# i_PC_next [31:0] $end
$var wire 8 Y# i_addr_PHT [7:0] $end
$var wire 1 2 i_predict $end
$var wire 1 , rst_n $end
$var reg 32 Z# F_PC_cur [31:0] $end
$var reg 2 [# F_PC_src [1:0] $end
$var reg 32 \# F_PC_target_btb [31:0] $end
$var reg 8 ]# F_addr_PHT [7:0] $end
$var reg 1 S F_predict $end
$upscope $end
$scope module PHT_inst $end
$var wire 1 ! clk $end
$var wire 1 < i_actual_taken $end
$var wire 8 ^# i_addr [7:0] $end
$var wire 8 _# i_addr_update [7:0] $end
$var wire 1 0 i_update $end
$var wire 1 , rst_n $end
$var reg 1 4 o_predict $end
$var integer 32 `# i [31:0] $end
$upscope $end
$scope module REGISTERFILE_inst $end
$var wire 1 ! clk $end
$var wire 5 a# i_raddr1 [4:0] $end
$var wire 5 b# i_raddr2 [4:0] $end
$var wire 5 c# i_waddr [4:0] $end
$var wire 32 d# i_wdata [31:0] $end
$var wire 1 = i_wen_rf $end
$var wire 32 e# o_rdata1 [31:0] $end
$var wire 32 f# o_rdata2 [31:0] $end
$var wire 1 , rst_n $end
$var integer 32 g# i [31:0] $end
$upscope $end
$upscope $end
$upscope $end
$enddefinitions $end
#0
$dumpvars
b100000 g#
b0 f#
b0 e#
b0 d#
b0 c#
b0 b#
b0 a#
b100000000 `#
b0 _#
b0 ^#
b0 ]#
b0 \#
b0 [#
b0 Z#
b0 Y#
b100 X#
b0 W#
b1 V#
b0 U#
b0 T#
b0 S#
b0 R#
b0 Q#
b0 P#
b0 O#
b0 N#
b0 M#
b0 L#
b0 K#
b0 J#
b0 I#
b0 H#
b0 G#
b0 F#
b0 E#
b0 D#
b100 C#
b1 B#
b0 A#
b0 @#
b100 ?#
b0 >#
b0 =#
b0 <#
b0 ;#
b0 :#
b0 9#
b0 8#
b0 7#
b0 6#
b0 5#
b0 4#
b0 3#
b0 2#
b0 1#
b10011 0#
b0 /#
b0 .#
b0 -#
b0 ,#
b0 +#
b0 *#
b0 )#
b0 (#
b0 '#
b0 &#
b0 %#
b10011 $#
b100 ##
b0 "#
b0 !#
b0 ~"
b0 }"
b0 |"
b0 {"
b0 z"
b0 y"
b0 x"
b0 w"
b0 v"
b0 u"
b0 t"
b0 s"
b0 r"
b0 q"
b0 p"
b0 o"
b0 n"
b0 m"
b0 l"
b0 k"
b0 j"
b0 i"
b0 h"
b0 g"
b0 f"
b0 e"
b0 d"
b0 c"
b0 b"
0a"
b0 `"
b0 _"
b0 ^"
b0 ]"
b0 \"
b0 ["
b0 Z"
b0 Y"
b0 X"
b0 W"
b0 V"
b0 U"
b0 T"
b0 S"
b0 R"
b0 Q"
b0 P"
b0 O"
b0 N"
b100000000 M"
b0 L"
b0 K"
b0 J"
b0 I"
b1 H"
b0 G"
b0 F"
b0 E"
b0 D"
b0 C"
b0 B"
b0 A"
b10000000 @"
b0 ?"
b0 >"
b0 ="
b0 <"
b0 ;"
b0 :"
b0 9"
b0 8"
b0 7"
b0 6"
b0 5"
b0 4"
b0 3"
b0 2"
b0 1"
b0 0"
b100 /"
b100 ."
1-"
b0 ,"
b0 +"
b0 *"
b0 )"
b0 ("
b0 '"
0&"
b0 %"
0$"
0#"
b0 ""
0!"
b0 ~
b0 }
0|
0{
0z
b0 y
b0 x
1w
b0 v
0u
b0 t
b0 s
b0 r
b0 q
b0 p
b0 o
b0 n
0m
b0 l
0k
0j
b0 i
0h
b0 g
0f
0e
0d
b0 c
b0 b
b0 a
b0 `
b0 _
b0 ^
b0 ]
b0 \
b0 [
0Z
1Y
b0 X
b100 W
b0 V
b0 U
b0 T
0S
b0 R
b0 Q
b0 P
0O
b0 N
0M
b0 L
b0 K
b0 J
0I
0H
b100 G
b1 F
1E
b0 D
b0 C
b0 B
b0 A
b0 @
b0 ?
b0 >
0=
0<
0;
0:
b10011 9
08
b0 7
06
05
04
03
02
01
00
0/
b0 .
0-
0,
bx +
bx *
bx )
bx (
bx '
bx &
bx %
bx $
bx #
bx "
0!
$end
#5
b100000000 `#
b10000000 @"
b100000000 M"
1!
#10
b100000 g#
b0 +
b0 *
b0 )
b0 (
b0 '
b0 &
b0 %
b0 $
b0 #
b0 "
0!
#15
b100000000 M"
b10000000 @"
b100000000 `#
1!
#20
b100000 g#
0!
#25
b100000000 `#
b10000000 @"
b100000000 M"
1!
#30
0!
1,
#35
b1 .
b1 Y#
b1 ^#
1&"
1u
b1 <"
b1000 G
b1000 C#
b1000 X#
b10010011 9
b10010011 $#
b10010011 0#
b10011 C"
b1000 W
b1000 /"
b1000 ##
b1000 ?#
b100 X
b100 0"
b100 >"
b100 (#
b100 /#
b100 Z#
b1 V
b1 '#
b1 [#
b100 *"
b100 s"
b100 *#
b10011 }
b10011 .#
1!
#40
0!
#45
b10 .
b10 Y#
b10 ^#
b1 l"
b1 O"
b10 <"
b1100 G
b1100 C#
b1100 X#
b101000000000000100010011 9
b101000000000000100010011 $#
b101000000000000100010011 0#
b100 o
b100 V"
b100 v"
b100 A#
1Z
1m
b1000 *"
b1000 s"
b1000 *#
b100 +"
b100 t"
b100 )#
b10010011 }
b10010011 .#
b1 )"
b1 +#
b1100 W
b1100 /"
b1100 ##
b1100 ?#
b1000 X
b1000 0"
b1000 >"
b1000 (#
b1000 /#
b1000 Z#
b1 T
b1 %#
b1 ]#
1!
#50
0!
#55
b11 .
b11 Y#
b11 ^#
b1010 ""
b1010 P"
b1010 j"
b11 <"
b10000000000001000010011 9
b10000000000001000010011 $#
b10000000000001000010011 0#
b1010 _"
b1010 n"
b10 l"
b10100000000000010 O"
b1010 b#
b1 ="
b10000 G
b10000 C#
b10000 X#
b10000 W
b10000 /"
b10000 ##
b10000 ?#
b1100 X
b1100 0"
b1100 >"
b1100 (#
b1100 /#
b1100 Z#
b10 T
b10 %#
b10 ]#
b1100 *"
b1100 s"
b1100 *#
b1000 +"
b1000 t"
b1000 )#
b101000000000000100010011 }
b101000000000000100010011 .#
b1 '"
b1 r"
b1 -#
b1 _#
b1 c
b1 T"
b1 f"
b1 {"
b1000 o
b1000 V"
b1000 v"
b1000 A#
b100 q
b100 1"
b100 8"
b100 @#
b100 p
b100 2"
b100 ?"
b100 u"
b100 P
b100 X"
b100 3#
1I
1!
#60
0!
#65
0Y
b1010 t
b1010 7"
b1010 Q"
b100 ""
b100 P"
b100 j"
b100 .
b100 Y#
b100 ^#
b10 ="
b1010 _
b1010 5"
b1010 <#
b100 _"
b100 n"
b100 l"
b1000000000000100 O"
b100 b#
b100 <"
b10100 G
b10100 C#
b10100 X#
b1000001000110001100011 9
b1000001000110001100011 $#
b1000001000110001100011 0#
b100 A
b100 8#
b100 R#
1=
b1 L
b1 Z"
b1 `"
b1 4#
b1000 P
b1000 X"
b1000 3#
b1010 \
b1010 d"
b1010 !#
b10 c
b10 T"
b10 f"
b10 {"
b1100 o
b1100 V"
b1100 v"
b1100 A#
b1000 p
b1000 2"
b1000 ?"
b1000 u"
b10010 q
b10010 1"
b10010 8"
b10010 @#
b1010 i
b1010 3"
b1010 y"
b1010 ;#
b1 n
b1 w"
b10000 *"
b10000 s"
b10000 *#
b1100 +"
b1100 t"
b1100 )#
b10000000000001000010011 }
b10000000000001000010011 .#
b10 '"
b10 r"
b10 -#
b10 _#
b10100 W
b10100 /"
b10100 ##
b10100 ?#
b10000 X
b10000 0"
b10000 >"
b10000 (#
b10000 /#
b10000 Z#
b11 T
b11 %#
b11 ]#
1!
#70
0!
#75
b101 .
b101 Y#
b101 ^#
b11000 ""
b11000 P"
b11000 j"
b1 %"
b1 D"
b1 i"
b10 ,"
b10 E"
b10 N"
0u
1$"
0&"
b100 t
b100 7"
b100 Q"
b101 <"
b100001000000010010011 9
b100001000000010010011 $#
b100001000000010010011 0#
b10 _"
b1 ^"
b10 n"
b1 m"
b11000 l"
b100000100011000 O"
b10 b#
b1 a#
b1100011 C"
b11 ="
b100 _
b100 5"
b100 <#
b11000 G
b11000 C#
b11000 X#
b1010 I"
b11000 W
b11000 /"
b11000 ##
b11000 ?#
b10100 X
b10100 0"
b10100 >"
b10100 (#
b10100 /#
b10100 Z#
b100 T
b100 %#
b100 ]#
b10100 *"
b10100 s"
b10100 *#
b10000 +"
b10000 t"
b10000 )#
b1000001000110001100011 }
b1000001000110001100011 .#
b11 '"
b11 r"
b11 -#
b11 _#
b100 \
b100 d"
b100 !#
b100 c
b100 T"
b100 f"
b100 {"
b10000 o
b10000 V"
b10000 v"
b10000 A#
b1100 p
b1100 2"
b1100 ?"
b1100 u"
b10000 q
b10000 1"
b10000 8"
b10000 @#
b100 i
b100 3"
b100 y"
b100 ;#
b10 n
b10 w"
b10 L
b10 Z"
b10 `"
b10 4#
b1100 P
b1100 X"
b1100 3#
b1010 R
b1010 W"
b1010 1#
b1010 E#
b1010 K#
b1 @
b1 b"
b1 9#
b1 c#
b1000 A
b1000 8#
b1000 R#
1!
#80
0!
#85
0h
0!"
08
0<
b1 F
b1 H"
b1 B#
b1 V#
0-
b1010 ^
b1010 =#
b1010 O#
0Y
b1 ""
b1 P"
b1 j"
1&"
b0 %"
b0 D"
b0 i"
1u
b0 ,"
b0 E"
b0 N"
0$"
b110 .
b110 Y#
b110 ^#
b1010 ?
b1010 H#
b1010 N#
b1010 U#
b1010 d#
b100 I"
b10 r
b10 h"
b10 M#
b100 ="
b1010 _
b1010 5"
b1010 <#
b11111111111111111111111111110110 t
b11111111111111111111111111110110 7"
b11111111111111111111111111110110 Q"
1/
11
10
13
1:
b1 _"
b1 n"
b1 l"
b10000100000001 O"
b1 b#
b10011 C"
b110 <"
b11100 G
b11100 C#
b11100 X#
b110010011 9
b110010011 $#
b110010011 0#
b10 @
b10 b"
b10 9#
b10 c#
b1100 A
b1100 8#
b1100 R#
b1010 C
b1010 6#
b1010 P#
b100 L
b100 Z"
b100 `"
b100 4#
b10000 P
b10000 X"
b10000 3#
b100 R
b100 W"
b100 1#
b100 E#
b100 K#
b10 \
b10 d"
b10 !#
b1 ]
b1 e"
b1 ~"
b11000 c
b11000 T"
b11000 f"
b11000 {"
b10100 o
b10100 V"
b10100 v"
b10100 A#
b10000 p
b10000 2"
b10000 ?"
b10000 u"
b101000 q
b101000 1"
b101000 8"
b101000 @#
b11000 i
b11000 3"
b11000 y"
b11000 ;#
0Z
0m
b1 l
b1 4"
b1 x"
1k
b11 n
b11 w"
b11000 *"
b11000 s"
b11000 *#
b10100 +"
b10100 t"
b10100 )#
b100001000000010010011 }
b100001000000010010011 .#
b100 '"
b100 r"
b100 -#
b100 _#
b11100 W
b11100 /"
b11100 ##
b11100 ?#
b11000 X
b11000 0"
b11000 >"
b11000 (#
b11000 /#
b11000 Z#
b101 T
b101 %#
b101 ]#
1!
#90
0!
#95
b111 .
b111 Y#
b111 ^#
b0 ""
b0 P"
b0 j"
b111 <"
b11111110010000011000101011100011 9
b11111110010000011000101011100011 $#
b11111110010000011000101011100011 0#
b0 _"
b0 ^"
b0 n"
b0 m"
b11 l"
b11 O"
b0 b#
b0 a#
b101 ="
b100000 G
b100000 C#
b100000 X#
b1 _
b1 5"
b1 <#
b1 t
b1 7"
b1 Q"
0/
01
00
03
0:
b0 ^
b0 =#
b0 O#
b11110110 I"
b0 r
b0 h"
b0 M#
b100 ?
b100 H#
b100 N#
b100 U#
b100 d#
b100000 W
b100000 /"
b100000 ##
b100000 ?#
b11100 X
b11100 0"
b11100 >"
b11100 (#
b11100 /#
b11100 Z#
b110 T
b110 %#
b110 ]#
b11100 *"
b11100 s"
b11100 *#
b11000 +"
b11000 t"
b11000 )#
b110010011 }
b110010011 .#
b101 '"
b101 r"
b101 -#
b101 _#
b1 \
b1 d"
b1 !#
b1 c
b1 T"
b1 f"
b1 {"
b11000 o
b11000 V"
b11000 v"
b11000 A#
b10100 p
b10100 2"
b10100 ?"
b10100 u"
b10101 q
b10101 1"
b10101 8"
b10101 @#
b1 i
b1 3"
b1 y"
b1 ;#
1Z
1m
b0 l
b0 4"
b0 x"
0k
b100 n
b100 w"
b11000 L
b11000 Z"
b11000 `"
b11000 4#
b10100 P
b10100 X"
b10100 3#
b11111111111111111111111111110110 R
b11111111111111111111111111110110 W"
b11111111111111111111111111110110 1#
b11111111111111111111111111110110 E#
b11111111111111111111111111110110 K#
0I
b100 @
b100 b"
b100 9#
b100 c#
b10000 A
b10000 8#
b10000 R#
b100 C
b100 6#
b100 P#
1!
#100
b1010 $
0!
#105
1Y
b0 t
b0 7"
b0 Q"
b11111111111111111111111111110100 ""
b11111111111111111111111111110100 P"
b11111111111111111111111111110100 j"
b1 %"
b1 D"
b1 i"
b10 ,"
b10 E"
b10 N"
0u
1$"
0&"
b1000 .
b1000 Y#
b1000 ^#
b11111111111111111111111111110110 ?
b11111111111111111111111111110110 H#
b11111111111111111111111111110110 N#
b11111111111111111111111111110110 U#
b11111111111111111111111111110110 d#
b1 I"
b110 ="
b0 _
b0 5"
b0 <#
b100 _"
b11 ^"
b100 n"
b11 m"
b10101 l"
b1111111001000001100010101 O"
b100 x
b100 p"
b100 f#
b100 b#
b11 a#
b1111111 B"
b1100011 C"
b1000 <"
b100100 G
b100100 C#
b100100 X#
b100011000000110010011 9
b100011000000110010011 $#
b100011000000110010011 0#
b11000 @
b11000 b"
b11000 9#
b11000 c#
b10100 A
b10100 8#
b10100 R#
b11111111111111111111111111110110 C
b11111111111111111111111111110110 6#
b11111111111111111111111111110110 P#
0=
b1 L
b1 Z"
b1 `"
b1 4#
b11000 P
b11000 X"
b11000 3#
b1 R
b1 W"
b1 1#
b1 E#
b1 K#
1I
b0 \
b0 d"
b0 !#
b0 ]
b0 e"
b0 ~"
b11 c
b11 T"
b11 f"
b11 {"
b11100 o
b11100 V"
b11100 v"
b11100 A#
b11000 p
b11000 2"
b11000 ?"
b11000 u"
b11000 q
b11000 1"
b11000 8"
b11000 @#
b0 i
b0 3"
b0 y"
b0 ;#
b101 n
b101 w"
b100000 *"
b100000 s"
b100000 *#
b11100 +"
b11100 t"
b11100 )#
b11111110010000011000101011100011 }
b11111110010000011000101011100011 .#
b110 '"
b110 r"
b110 -#
b110 _#
b100100 W
b100100 /"
b100100 ##
b100100 ?#
b100000 X
b100000 0"
b100000 >"
b100000 (#
b100000 /#
b100000 Z#
b111 T
b111 %#
b111 ]#
1!
#110
b100 &
0!
